{
  "urn" : "local:takumi.nagashima:klab.japan.sandbox:cite.nagashima_habitat_of_butasturindicus_autumn_wgs1984_10kmmesh_japan_2009",
  "version" : "0.0.1",
  "adapterType" : "wcs",
  "localPath" : "klab.japan.sandbox/resources/cite.nagashima_habitat_of_butasturindicus_autumn_wgs1984_10kmmesh_japan_2009",
  "geometry" : "S2(134,215){bbox=[124.125 141.0 24.33333333333333 42.33333333333333],proj=EPSG:4326}",
  "projectName" : "klab.japan.sandbox",
  "localName" : "cite.nagashima_habitat_of_butasturindicus_autumn_wgs1984_10kmmesh_japan_2009",
  "type" : "NUMBER",
  "resourceTimestamp" : 1658197073165,
  "metadata" : { },
  "parameters" : {
    "wcsIdentifier" : "cite__nagashima_Habitat_of_Butasturindicus_Autumn_WGS1984_10kmmesh_japan_2009",
    "transform" : "",
    "serviceUrl" : "http://192.168.12.6:8080/geoserver/cite/wcs",
    "wcsVersion" : "2.0.1"
  },
  "localPaths" : [ ],
  "history" : [ ],
  "notifications" : [ ],
  "attributes" : [ ],
  "spatialExtent" : {
    "east" : 141.0,
    "west" : 124.125,
    "north" : 42.33333333333333,
    "south" : 24.33333333333333,
    "gridResolution" : null,
    "gridUnit" : null
  },
  "dependencies" : null,
  "outputs" : null,
  "categorizables" : [ ],
  "codelists" : [ ],
  "availability" : null,
  "exportFormats" : { }
}