{
  "urn" : "local:takumi.nagashima:klab.japan.sandbox:windpower.jaxa_landuse",
  "version" : "0.0.1",
  "adapterType" : "wcs",
  "localPath" : "klab.japan.sandbox/resources/windpower.jaxa_landuse",
  "geometry" : "S2(383999,311999){bbox=[122.0 154.0 20.0 46.0],proj=EPSG:4326}",
  "projectName" : "klab.japan.sandbox",
  "localName" : "windpower.jaxa_landuse",
  "type" : "NUMBER",
  "resourceTimestamp" : 1658463709528,
  "metadata" : { },
  "parameters" : {
    "wcsIdentifier" : "windpower__jaxa_landuse",
    "transform" : "",
    "serviceUrl" : "http://153.126.168.139:8080/geoserver/windpower/wcs",
    "nodata" : "255.0",
    "wcsVersion" : "2.0.1"
  },
  "localPaths" : [ ],
  "history" : [ ],
  "notifications" : [ ],
  "attributes" : [ ],
  "spatialExtent" : {
    "east" : 154.0,
    "west" : 122.0,
    "north" : 46.0,
    "south" : 20.0,
    "gridResolution" : null,
    "gridUnit" : null
  },
  "dependencies" : null,
  "outputs" : null,
  "categorizables" : [ ],
  "codelists" : [ ],
  "availability" : null,
  "exportFormats" : { }
}