{
  "urn" : "local:takumi.nagashima:klab.japan.sandbox:windpower_nagashima_habitat_of_beangoose_wgs1984_japan_2005",
  "version" : "0.0.1",
  "adapterType" : "wfs",
  "localPath" : "klab.japan.sandbox/resources/windpower_nagashima_habitat_of_beangoose_wgs1984_japan_2005",
  "geometry" : "#s0(96){bbox=[123.93054962158203 145.3916778564453 24.344444274902344 45.130001068115234],proj=EPSG:4326}",
  "projectName" : "klab.japan.sandbox",
  "localName" : "windpower_nagashima_habitat_of_beangoose_wgs1984_japan_2005",
  "type" : "OBJECT",
  "resourceTimestamp" : 1656583256264,
  "metadata" : {
    "im:keywords" : "features,nagashima_habitat_of_beangoose_wgs1984_japan_2005",
    "dc:title" : "nagashima_habitat_of_beangoose_wgs1984_japan_2005"
  },
  "parameters" : {
    "serviceUrl" : "http://192.168.12.6:8080/geoserver/windpower/ows",
    "wfsVersion" : "1.0.0",
    "wfsIdentifier" : "windpower:nagashima_habitat_of_beangoose_wgs1984_japan_2005"
  },
  "localPaths" : [ ],
  "history" : [ ],
  "notifications" : [ ],
  "attributes" : [ {
    "name" : "max_namber",
    "type" : "NUMBER",
    "key" : false,
    "optional" : true,
    "exampleValue" : null,
    "index" : 0
  }, {
    "name" : "x",
    "type" : "NUMBER",
    "key" : false,
    "optional" : true,
    "exampleValue" : null,
    "index" : 0
  }, {
    "name" : "y",
    "type" : "NUMBER",
    "key" : false,
    "optional" : true,
    "exampleValue" : null,
    "index" : 0
  } ],
  "spatialExtent" : {
    "east" : 145.3916778564453,
    "west" : 123.93054962158203,
    "north" : 45.130001068115234,
    "south" : 24.344444274902344,
    "gridResolution" : null,
    "gridUnit" : null
  },
  "dependencies" : null,
  "outputs" : null,
  "categorizables" : [ ],
  "codelists" : [ ],
  "availability" : null,
  "exportFormats" : { }
}