{
  "urn" : "local:takumi.nagashima:klab.japan.sandbox:windpower2.nagashima_grade_of_vegetationnaturalness_9and10_wgs1984_japan_2012",
  "version" : "0.0.1",
  "adapterType" : "wcs",
  "localPath" : "klab.japan.sandbox/resources/windpower2.nagashima_grade_of_vegetationnaturalness_9and10_wgs1984_japan_2012",
  "geometry" : "S2(280103,194980){bbox=[122.87349611235572 153.9961627790224 24.00421005814769 45.66876561370324],proj=EPSG:4326}",
  "projectName" : "klab.japan.sandbox",
  "localName" : "windpower2.nagashima_grade_of_vegetationnaturalness_9and10_wgs1984_japan_2012",
  "type" : "NUMBER",
  "resourceTimestamp" : 1658735206620,
  "metadata" : { },
  "parameters" : {
    "wcsIdentifier" : "windpower2__nagashima_grade_of_VegetationNaturalness_9and10_WGS1984_Japan_2012",
    "transform" : "",
    "serviceUrl" : "http://192.168.12.6:8080/geoserver/windpower2/wcs",
    "nodata" : "0.0",
    "wcsVersion" : "2.0.1"
  },
  "localPaths" : [ ],
  "history" : [ ],
  "notifications" : [ ],
  "attributes" : [ ],
  "spatialExtent" : {
    "east" : 153.9961627790224,
    "west" : 122.87349611235572,
    "north" : 45.66876561370324,
    "south" : 24.00421005814769,
    "gridResolution" : null,
    "gridUnit" : null
  },
  "dependencies" : null,
  "outputs" : null,
  "categorizables" : [ ],
  "codelists" : [ ],
  "availability" : null,
  "exportFormats" : { }
}