{
  "urn" : "local:takumi.nagashima:klab.japan.sandbox:windpower_nagashima_important_landscape_buildings_wgs1984_japan_2014",
  "version" : "0.0.1",
  "adapterType" : "wfs",
  "localPath" : "klab.japan.sandbox/resources/windpower_nagashima_important_landscape_buildings_wgs1984_japan_2014",
  "geometry" : "#s0(253){bbox=[129.82284545898438 142.53602600097656 31.35932731628418 43.728759765625],proj=EPSG:4326}",
  "projectName" : "klab.japan.sandbox",
  "localName" : "windpower_nagashima_important_landscape_buildings_wgs1984_japan_2014",
  "type" : "OBJECT",
  "resourceTimestamp" : 1656583260711,
  "metadata" : {
    "im:keywords" : "features,nagashima_important_landscape_buildings_wgs1984_japan_2014",
    "dc:title" : "nagashima_important_landscape_buildings_wgs1984_japan_2014"
  },
  "parameters" : {
    "serviceUrl" : "http://192.168.12.6:8080/geoserver/windpower/ows",
    "wfsVersion" : "1.0.0",
    "wfsIdentifier" : "windpower:nagashima_important_landscape_buildings_wgs1984_japan_2014"
  },
  "localPaths" : [ ],
  "history" : [ ],
  "notifications" : [ ],
  "attributes" : {
    "name" : "a35g_001",
    "type" : "NUMBER",
    "key" : false,
    "optional" : true,
    "exampleValue" : null,
    "index" : 0
  },
  "spatialExtent" : {
    "east" : 142.53602600097656,
    "west" : 129.82284545898438,
    "north" : 43.728759765625,
    "south" : 31.35932731628418,
    "gridResolution" : null,
    "gridUnit" : null
  },
  "dependencies" : null,
  "outputs" : null,
  "categorizables" : [ ],
  "codelists" : [ ],
  "availability" : null,
  "exportFormats" : { }
}