{
  "urn" : "local:takumi.nagashima:klab.japan.sandbox:cite_nagashima_location_bigtree_wgs1984_japan_2000",
  "version" : "0.0.1",
  "adapterType" : "wfs",
  "localPath" : "klab.japan.sandbox/resources/cite_nagashima_location_bigtree_wgs1984_japan_2000",
  "geometry" : "#s0(45051){bbox=[122.97142791748047 145.49102783203125 24.04642677307129 45.21712112426758],proj=EPSG:4326}",
  "projectName" : "klab.japan.sandbox",
  "localName" : "cite_nagashima_location_bigtree_wgs1984_japan_2000",
  "type" : "OBJECT",
  "resourceTimestamp" : 1656651716845,
  "metadata" : {
    "im:keywords" : "nagashima_location_bigtree_wgs1984_japan_2000,features",
    "dc:title" : "nagashima_location_bigtree_wgs1984_japan_2000"
  },
  "parameters" : {
    "serviceUrl" : "http://192.168.12.6:8080/geoserver/cite/ows",
    "wfsVersion" : "1.0.0",
    "wfsIdentifier" : "cite:nagashima_location_bigtree_wgs1984_japan_2000"
  },
  "localPaths" : [ ],
  "history" : [ ],
  "notifications" : [ ],
  "attributes" : {
    "name" : "id",
    "type" : "NUMBER",
    "key" : false,
    "optional" : true,
    "exampleValue" : null,
    "index" : 0
  },
  "spatialExtent" : {
    "east" : 145.49102783203125,
    "west" : 122.97142791748047,
    "north" : 45.21712112426758,
    "south" : 24.04642677307129,
    "gridResolution" : null,
    "gridUnit" : null
  },
  "dependencies" : null,
  "outputs" : null,
  "categorizables" : [ ],
  "codelists" : [ ],
  "availability" : null,
  "exportFormats" : { }
}